…
Imprime cierta información, como el tiempo que transcurre entre cada
observación.

``` r
olympic_running
```

    ## # A tsibble: 312 x 4 [4Y]
    ## # Key:       Length, Sex [14]
    ##     Year Length Sex    Time
    ##    <int>  <int> <chr> <dbl>
    ##  1  1896    100 men    12  
    ##  2  1900    100 men    11  
    ##  3  1904    100 men    11  
    ##  4  1908    100 men    10.8
    ##  5  1912    100 men    10.8
    ##  6  1916    100 men    NA  
    ##  7  1920    100 men    10.8
    ##  8  1924    100 men    10.6
    ##  9  1928    100 men    10.8
    ## 10  1932    100 men    10.3
    ## # … with 302 more rows
…
``` r
prison_csv <- readr::read_csv("https://OTexts.com/fpp3/extrafiles/prison_population.csv")

prison <- prison_csv %>%
  mutate(Quarter = yearquarter(Date)) %>%
  select(-Date) %>%
  as_tsibble(
    key = c(State, Gender, Legal, Indigenous),
    index = Quarter
  )

prison
```

    ## # A tsibble: 3,072 x 6 [1Q]
    ## # Key:       State, Gender, Legal, Indigenous [64]
    ##    State Gender Legal    Indigenous Count Quarter
    ##    <chr> <chr>  <chr>    <chr>      <dbl>   <qtr>
    ##  1 ACT   Female Remanded ATSI           0 2005 Q1
    ##  2 ACT   Female Remanded ATSI           1 2005 Q2
    ##  3 ACT   Female Remanded ATSI           0 2005 Q3
    ##  4 ACT   Female Remanded ATSI           0 2005 Q4
    ##  5 ACT   Female Remanded ATSI           1 2006 Q1
    ##  6 ACT   Female Remanded ATSI           1 2006 Q2
    ##  7 ACT   Female Remanded ATSI           1 2006 Q3
    ##  8 ACT   Female Remanded ATSI           0 2006 Q4
    ##  9 ACT   Female Remanded ATSI           0 2007 Q1
    ## 10 ACT   Female Remanded ATSI           1 2007 Q2
    ## # … with 3,062 more rows
…
