…
Fitea un modelo usando la función `TSLM` (time series linear model) del
paquete `fable` para fittear un linear trend model:

``` r
fit <- gdppc %>%
  model(trend_model = TSLM(GDP_per_capita ~ trend()))
fit
```

    ## # A mable: 263 x 2
    ## # Key:     Country [263]
    ##    Country             trend_model
    ##    <fct>                   <model>
    ##  1 Afghanistan              <TSLM>
    ##  2 Albania                  <TSLM>
    ##  3 Algeria                  <TSLM>
    ##  4 American Samoa           <TSLM>
    ##  5 Andorra                  <TSLM>
    ##  6 Angola                   <TSLM>
    ##  7 Antigua and Barbuda      <TSLM>
    ##  8 Arab World               <TSLM>
    ##  9 Argentina                <TSLM>
    ## 10 Armenia                  <TSLM>
    ## # … with 253 more rows

El resultado es un `mable` (model table), que se puede usar para
forecastear una `h` cantidad de períodos en el futuro, obteniendo un
`fable` (forecast table)\`:

``` r
fit %>% forecast(h = "3 years")
```

    ## # A fable: 789 x 5 [1Y]
    ## # Key:     Country, .model [263]
    ##    Country        .model       Year   GDP_per_capita  .mean
    ##    <fct>          <chr>       <dbl>           <dist>  <dbl>
    ##  1 Afghanistan    trend_model  2018     N(526, 9653)   526.
    ##  2 Afghanistan    trend_model  2019     N(534, 9689)   534.
    ##  3 Afghanistan    trend_model  2020     N(542, 9727)   542.
    ##  4 Albania        trend_model  2018  N(4716, 476419)  4716.
    ##  5 Albania        trend_model  2019  N(4867, 481086)  4867.
    ##  6 Albania        trend_model  2020  N(5018, 486012)  5018.
    ##  7 Algeria        trend_model  2018  N(4410, 643094)  4410.
    ##  8 Algeria        trend_model  2019  N(4489, 645311)  4489.
    ##  9 Algeria        trend_model  2020  N(4568, 647602)  4568.
    ## 10 American Samoa trend_model  2018 N(12491, 652926) 12491.
    ## # … with 779 more rows
…
## Some simple forecasting methods

Esta sección explora métodos muy simples, a menudo útiles como baseline.

``` r
bricks <- aus_production %>%
  filter_index("1970 Q1" ~ "2004 Q4") %>% # convenient shorthand for extracting a section of a time series
  select(Bricks)
bricks
```

    ## # A tsibble: 140 x 2 [1Q]
    ##    Bricks Quarter
    ##     <dbl>   <qtr>
    ##  1    386 1970 Q1
    ##  2    428 1970 Q2
    ##  3    434 1970 Q3
    ##  4    417 1970 Q4
    ##  5    385 1971 Q1
    ##  6    433 1971 Q2
    ##  7    453 1971 Q3
    ##  8    436 1971 Q4
    ##  9    399 1972 Q1
    ## 10    461 1972 Q2
    ## # … with 130 more rows
…
train <- aus_production %>%
  filter_index("1992 Q1" ~ "2006 Q4")
# Fit the models
beer_fit <- train %>%
  model(
    Mean = MEAN(Beer),
    `Naïve` = NAIVE(Beer),
    `Seasonal naïve` = SNAIVE(Beer)
  )
# Generate forecasts for 14 quarters
beer_fc <- beer_fit %>% forecast(h = 14)
beer_fc
```

    ## # A fable: 42 x 4 [1Q]
    ## # Key:     .model [3]
    ##    .model Quarter         Beer .mean
    ##    <chr>    <qtr>       <dist> <dbl>
    ##  1 Mean   2007 Q1 N(436, 1996)  436.
    ##  2 Mean   2007 Q2 N(436, 1996)  436.
    ##  3 Mean   2007 Q3 N(436, 1996)  436.
    ##  4 Mean   2007 Q4 N(436, 1996)  436.
    ##  5 Mean   2008 Q1 N(436, 1996)  436.
    ##  6 Mean   2008 Q2 N(436, 1996)  436.
    ##  7 Mean   2008 Q3 N(436, 1996)  436.
    ##  8 Mean   2008 Q4 N(436, 1996)  436.
    ##  9 Mean   2009 Q1 N(436, 1996)  436.
    ## 10 Mean   2009 Q2 N(436, 1996)  436.
    ## # … with 32 more rows
…
## Fitted values and residuals

La función `augment` permite agregar a un `fable` los valores ajustados
y los residuos. Además incluye los “innovation residuals”, que en caso
de mostrar un patrón indican que el modelo todavía puede ser mejorado
(ver sección siguiente).

``` r
fabletools::augment(beer_fit)
```

    ## # A tsibble: 180 x 6 [1Q]
    ## # Key:       .model [3]
    ##    .model Quarter  Beer .fitted .resid .innov
    ##    <chr>    <qtr> <dbl>   <dbl>  <dbl>  <dbl>
    ##  1 Mean   1992 Q1   443    436.   6.55   6.55
    ##  2 Mean   1992 Q2   410    436. -26.4  -26.4 
    ##  3 Mean   1992 Q3   420    436. -16.4  -16.4 
    ##  4 Mean   1992 Q4   532    436.  95.6   95.6 
    ##  5 Mean   1993 Q1   433    436.  -3.45  -3.45
    ##  6 Mean   1993 Q2   421    436. -15.4  -15.4 
    ##  7 Mean   1993 Q3   410    436. -26.4  -26.4 
    ##  8 Mean   1993 Q4   512    436.  75.6   75.6 
    ##  9 Mean   1994 Q1   449    436.  12.6   12.6 
    ## 10 Mean   1994 Q2   381    436. -55.4  -55.4 
    ## # … with 170 more rows
…
En este caso lo que hacemos es simular nuevos residuos bootstrapeados de
los residuos históricos, y usarlos para así ir construyendo una serie de
predicciones. La función `generate` nos puede ayudar en esta tarea:

``` r
fit <- google_2015 %>%
  model(NAIVE(Close))
sim <- fit %>% generate(h = 30, times = 5, bootstrap = TRUE)
sim
```

    ## # A tsibble: 150 x 5 [1]
    ## # Key:       Symbol, .model, .rep [5]
    ##    Symbol .model         day .rep   .sim
    ##    <chr>  <chr>        <dbl> <chr> <dbl>
    ##  1 GOOG   NAIVE(Close)   253 1      759.
    ##  2 GOOG   NAIVE(Close)   254 1      754.
    ##  3 GOOG   NAIVE(Close)   255 1      762.
    ##  4 GOOG   NAIVE(Close)   256 1      773.
    ##  5 GOOG   NAIVE(Close)   257 1      769.
    ##  6 GOOG   NAIVE(Close)   258 1      765.
    ##  7 GOOG   NAIVE(Close)   259 1      768.
    ##  8 GOOG   NAIVE(Close)   260 1      767.
    ##  9 GOOG   NAIVE(Close)   261 1      775.
    ## 10 GOOG   NAIVE(Close)   262 1      773.
    ## # … with 140 more rows
…
Ahora, para calcular los intervalos de predicción, basta con simular una
cantidad arbitrarariamente grande de estas secuencias de predicciones, y
calcular los percentiles en función de la confianza que queramos darle.

La función `forecast` puede hacer esto por nosotros directamente con el
argumento `bootstrap`, ahorrándonos el trabajo de tener que simular:

``` r
fc <- fit %>% forecast(h = 30, bootstrap = TRUE, times = 4000)
fc
```

    ## # A fable: 30 x 5 [1]
    ## # Key:     Symbol, .model [1]
    ##    Symbol .model         day        Close .mean
    ##    <chr>  <chr>        <dbl>       <dist> <dbl>
    ##  1 GOOG   NAIVE(Close)   253 sample[4000]  759.
    ##  2 GOOG   NAIVE(Close)   254 sample[4000]  759.
    ##  3 GOOG   NAIVE(Close)   255 sample[4000]  759.
    ##  4 GOOG   NAIVE(Close)   256 sample[4000]  759.
    ##  5 GOOG   NAIVE(Close)   257 sample[4000]  759.
    ##  6 GOOG   NAIVE(Close)   258 sample[4000]  759.
    ##  7 GOOG   NAIVE(Close)   259 sample[4000]  759.
    ##  8 GOOG   NAIVE(Close)   260 sample[4000]  759.
    ##  9 GOOG   NAIVE(Close)   261 sample[4000]  759.
    ## 10 GOOG   NAIVE(Close)   262 sample[4000]  759.
    ## # … with 20 more rows
…
Tomemos la serie de empleo en el sector retail de los Estados Unidos:

``` r
us_retail_employment <- us_employment %>%
  filter(year(Month) >= 1990, Title == "Retail Trade")
us_retail_employment %>% autoplot()

dcmp <- us_retail_employment %>%
  model(STL(Employed ~ trend(window = 7), robust = TRUE)) %>%
  components() %>%
  select(-.model)
dcmp
```

    ## # A tsibble: 357 x 7 [1M]
    ## # Key:       Series_ID [1]
    ##    Series_ID        Month Employed  trend season_year remainder season_adjust
    ##    <chr>            <mth>    <dbl>  <dbl>       <dbl>     <dbl>         <dbl>
    ##  1 CEU4200000001 1990 Jan   13256. 13326.       -72.6     2.85         13328.
    ##  2 CEU4200000001 1990 Feb   12966. 13297.      -273.    -58.1          13239.
    ##  3 CEU4200000001 1990 Mar   12938. 13270.      -295.    -36.3          13233.
    ##  4 CEU4200000001 1990 Apr   13012. 13230.      -216.     -1.59         13228.
    ##  5 CEU4200000001 1990 May   13108. 13223.      -119.      4.72         13228.
    ##  6 CEU4200000001 1990 Jun   13183. 13212.       -30.6     0.978        13213.
    ##  7 CEU4200000001 1990 Jul   13170. 13198.       -32.8     5.23         13203.
    ##  8 CEU4200000001 1990 Aug   13160. 13178.       -20.1     1.84         13180.
    ##  9 CEU4200000001 1990 Sep   13113. 13149.       -45.5     9.76         13159.
    ## 10 CEU4200000001 1990 Oct   13185. 13113.        64.2     8.28         13121.
    ## # … with 347 more rows
…
Habla de hacer cross-validation para series de tiempo agregando datos de
a uno y evaluando el modelo en cada paso.

Lo hace con la función `stretch_tsibble`, de la que podemos setear los
parámetros `.init` para indicar cuántos datos usar para como mínimo, y
`.step` para indicar cuántos datos agregar en cada paso.

``` r
google_2015_tr <- google_2015 %>%
  stretch_tsibble(.init = 3, .step = 1) %>%
  relocate(Date, Symbol, .id)
google_2015_tr
```

    ## # A tsibble: 31,875 x 10 [1]
    ## # Key:       Symbol, .id [250]
    ##    Date       Symbol   .id  Open  High   Low Close Adj_Close  Volume   day
    ##    <date>     <chr>  <int> <dbl> <dbl> <dbl> <dbl>     <dbl>   <dbl> <int>
    ##  1 2015-01-02 GOOG       1  526.  528.  521.  522.      522. 1447600     1
    ##  2 2015-01-05 GOOG       1  520.  521.  510.  511.      511. 2059800     2
    ##  3 2015-01-06 GOOG       1  512.  513.  498.  499.      499. 2899900     3
    ##  4 2015-01-02 GOOG       2  526.  528.  521.  522.      522. 1447600     1
    ##  5 2015-01-05 GOOG       2  520.  521.  510.  511.      511. 2059800     2
    ##  6 2015-01-06 GOOG       2  512.  513.  498.  499.      499. 2899900     3
    ##  7 2015-01-07 GOOG       2  504.  504.  497.  498.      498. 2065100     4
    ##  8 2015-01-02 GOOG       3  526.  528.  521.  522.      522. 1447600     1
    ##  9 2015-01-05 GOOG       3  520.  521.  510.  511.      511. 2059800     2
    ## 10 2015-01-06 GOOG       3  512.  513.  498.  499.      499. 2899900     3
    ## # … with 31,865 more rows
…
