…
## Weekly, daily and sub-daily data

### Weekly data

Hay que usar modelos que puedan lidiar con una periodicidad no entera
(52+1/7 semanas en el año), no todos los años tienen la misma cantidad
de semanas:

``` r
us_gasoline %>%
  group_by(year = year(Week)) %>%
  filter(Week == max(Week))
```

    ## # A tsibble: 27 x 3 [1W]
    ## # Groups:    year [27]
    ##        Week Barrels  year
    ##      <week>   <dbl> <dbl>
    ##  1 1991 W52    7.19  1991
    ##  2 1992 W53    7.36  1992
    ##  3 1993 W52    7.57  1993
    ##  4 1994 W52    7.72  1994
    ##  5 1995 W52    7.04  1995
    ##  6 1996 W52    7.74  1996
    ##  7 1997 W52    8.20  1997
    ##  8 1998 W53    8.52  1998
    ##  9 1999 W52    8.85  1999
    ## 10 2000 W52    8.69  2000
    ## # … with 17 more rows
…
