…
La función `aggregate_key` nos permite crear una jerarquía. La sintaxis
`parent/child` se usa para especificar una jerarquía anidada, en este
caso creando series nuevas que agrupan los datos a nivel estatal y
nacional:

``` r
tourism_hts <- tourism |>
  aggregate_key(State / Region, Trips = sum(Trips))
tourism_hts
```

    ## # A tsibble: 6,800 x 4 [1Q]
    ## # Key:       State, Region [85]
    ##    Quarter State        Region        Trips
    ##      <qtr> <chr*>       <chr*>        <dbl>
    ##  1 1998 Q1 <aggregated> <aggregated> 23182.
    ##  2 1998 Q2 <aggregated> <aggregated> 20323.
    ##  3 1998 Q3 <aggregated> <aggregated> 19827.
    ##  4 1998 Q4 <aggregated> <aggregated> 20830.
    ##  5 1999 Q1 <aggregated> <aggregated> 22087.
    ##  6 1999 Q2 <aggregated> <aggregated> 21458.
    ##  7 1999 Q3 <aggregated> <aggregated> 19914.
    ##  8 1999 Q4 <aggregated> <aggregated> 20028.
    ##  9 2000 Q1 <aggregated> <aggregated> 22339.
    ## 10 2000 Q2 <aggregated> <aggregated> 19941.
    ## # … with 6,790 more rows
…
### Mixed hierarchical and grouped structure

La sintaxis de jararquías anidadas `Parent/Child` y de grupos cruzados
`Gropo1 * Grupo2` se pueden combinar para crear estructuras mixtas:

``` r
tourism_full <- tourism |>
  aggregate_key((State / Region) * Purpose, Trips = sum(Trips))
tourism_full %>% filter(!is_aggregated(Purpose), !is_aggregated(State))
```

    ## # A tsibble: 26,880 x 5 [1Q]
    ## # Key:       State, Purpose, Region [336]
    ##    Quarter State  Purpose  Region        Trips
    ##      <qtr> <chr*> <chr*>   <chr*>        <dbl>
    ##  1 1998 Q1 ACT    Business <aggregated>  150. 
    ##  2 1998 Q1 ACT    Holiday  <aggregated>  196. 
    ##  3 1998 Q1 ACT    Other    <aggregated>   21.7
    ##  4 1998 Q1 ACT    Visiting <aggregated>  183. 
    ##  5 1998 Q1 NSW    Business <aggregated> 1148. 
    ##  6 1998 Q1 NSW    Holiday  <aggregated> 4033. 
    ##  7 1998 Q1 NSW    Other    <aggregated>  262. 
    ##  8 1998 Q1 NSW    Visiting <aggregated> 2597. 
    ##  9 1998 Q1 NT     Business <aggregated>   91.6
    ## 10 1998 Q1 NT     Holiday  <aggregated>   59.8
    ## # … with 26,870 more rows
…
Si quisiéramos hacer una estrategia bottom-up a mano, deberíamos hacer
un forecast para cada serie no-agrupada, y luego sumar los forecasts
para cada grupo. Empezamos por hacer los forecasts para cada serie
independiente:

``` r
fcasts_state <- tourism_states |>
  filter(!is_aggregated(State)) |>
  model(ets = ETS(Trips)) |>
  forecast()
fcasts_state
```

    ## # A fable: 64 x 5 [1Q]
    ## # Key:     State, .model [8]
    ##    State  .model Quarter           Trips .mean
    ##    <chr*> <chr>    <qtr>          <dist> <dbl>
    ##  1 ACT    ets    2018 Q1    N(701, 7651)  701.
    ##  2 ACT    ets    2018 Q2    N(717, 8032)  717.
    ##  3 ACT    ets    2018 Q3    N(734, 8440)  734.
    ##  4 ACT    ets    2018 Q4    N(750, 8882)  750.
    ##  5 ACT    ets    2019 Q1    N(767, 9368)  767.
    ##  6 ACT    ets    2019 Q2    N(784, 9905)  784.
    ##  7 ACT    ets    2019 Q3   N(800, 10503)  800.
    ##  8 ACT    ets    2019 Q4   N(817, 11171)  817.
    ##  9 NSW    ets    2018 Q1  N(8886, 96984) 8886.
    ## 10 NSW    ets    2018 Q2 N(8311, 122362) 8311.
    ## # … with 54 more rows
…
El paso de `recocile` va entre el modelado y el forecasting, y devuelve
tanto los modelos originales como los conciliados. El modelo conciliado
es una columna de modelos más, y a partir de ahí se puede forecastear
normalmente:

``` r
reconciled_models |>
  forecast()
```

    ## # A fable: 144 x 5 [1Q]
    ## # Key:     State, .model [18]
    ##    State  .model Quarter         Trips .mean
    ##    <chr*> <chr>    <qtr>        <dist> <dbl>
    ##  1 ACT    ets    2018 Q1  N(701, 7651)  701.
    ##  2 ACT    ets    2018 Q2  N(717, 8032)  717.
    ##  3 ACT    ets    2018 Q3  N(734, 8440)  734.
    ##  4 ACT    ets    2018 Q4  N(750, 8882)  750.
    ##  5 ACT    ets    2019 Q1  N(767, 9368)  767.
    ##  6 ACT    ets    2019 Q2  N(784, 9905)  784.
    ##  7 ACT    ets    2019 Q3 N(800, 10503)  800.
    ##  8 ACT    ets    2019 Q4 N(817, 11171)  817.
    ##  9 ACT    bu     2018 Q1  N(701, 7651)  701.
    ## 10 ACT    bu     2018 Q2  N(717, 8032)  717.
    ## # … with 134 more rows

### Top-down forecasts

Los forecasts top-down se pueden generar usando `top_down()` dentro de
la función `reconcile()`:

``` r
individual_models <- tourism_states |>
  model(ets = ETS(Trips))
individual_models %>%
  reconcile(td = top_down(ets)) %>%
  forecast()
```

    ## # A fable: 144 x 5 [1Q]
    ## # Key:     State, .model [18]
    ##    State  .model Quarter         Trips .mean
    ##    <chr*> <chr>    <qtr>        <dist> <dbl>
    ##  1 ACT    ets    2018 Q1  N(701, 7651)  701.
    ##  2 ACT    ets    2018 Q2  N(717, 8032)  717.
    ##  3 ACT    ets    2018 Q3  N(734, 8440)  734.
    ##  4 ACT    ets    2018 Q4  N(750, 8882)  750.
    ##  5 ACT    ets    2019 Q1  N(767, 9368)  767.
    ##  6 ACT    ets    2019 Q2  N(784, 9905)  784.
    ##  7 ACT    ets    2019 Q3 N(800, 10503)  800.
    ##  8 ACT    ets    2019 Q4 N(817, 11171)  817.
    ##  9 ACT    td     2018 Q1   N(704, 411)  704.
    ## 10 ACT    td     2018 Q2   N(740, 618)  740.
    ## # … with 134 more rows
…
``` r
fit <- prison_gts |>
  filter(year(Quarter) <= 2014) |>
  model(base = ETS(Count)) |>
  reconcile(
    bottom_up = bottom_up(base),
    MinT = min_trace(base, method = "mint_shrink")
  )
fc <- fit |> forecast(h = 8)
fc
```

    ## # A fable: 1,944 x 7 [1Q]
    ## # Key:     Gender, Legal, State, .model [243]
    ##    Gender Legal    State  .model    Quarter              Count   .mean
    ##    <chr*> <chr*>   <chr*> <chr>       <qtr>             <dist>   <dbl>
    ##  1 Female Remanded ACT    base      2015 Q1 N(0.0051, 2.8e-06) 0.00508
    ##  2 Female Remanded ACT    base      2015 Q2 N(0.0051, 4.3e-06) 0.00512
    ##  3 Female Remanded ACT    base      2015 Q3 N(0.0052, 6.1e-06) 0.00516
    ##  4 Female Remanded ACT    base      2015 Q4 N(0.0052, 8.3e-06) 0.00521
    ##  5 Female Remanded ACT    base      2016 Q1 N(0.0052, 1.1e-05) 0.00525
    ##  6 Female Remanded ACT    base      2016 Q2 N(0.0053, 1.4e-05) 0.00529
    ##  7 Female Remanded ACT    base      2016 Q3 N(0.0053, 1.7e-05) 0.00533
    ##  8 Female Remanded ACT    base      2016 Q4 N(0.0054, 2.1e-05) 0.00538
    ##  9 Female Remanded ACT    bottom_up 2015 Q1 N(0.0051, 2.8e-06) 0.00508
    ## 10 Female Remanded ACT    bottom_up 2015 Q2 N(0.0051, 4.3e-06) 0.00512
    ## # … with 1,934 more rows
…
